{
    "items": [
        {
            "id": 1551061,
            "content": "宝骏汽车旗下云朵车型正式上市，新车共推出 4 款配置车型...",
            "category_id": 396,
            "tag_id": "4547",
            "title": "宝骏云朵正式上市 售价9.58万元起",
            "cover": "http://s1.dgtle.com/dgtle_img/news/2023/08/11/b9d2d20230811154152966.jpeg?imageView2/2/w/600/q/100/format/jpg",
            "imgs_url": "",
            "num": "",
            "unit": "",
            "from": "",
            "img_source": "",
            "status": 2,
            "audit": 0,
            "viewnum": 2260,
            "commentnum": 6,
            "liketimes": 5,
            "favtimes": 0,
            "pushed": 0,
            "push_at": 0,
            "recommend": 0,
            "digest": 0,
            "created_at": 1691750569,
            "updated_at": 1691862186,
            "is_like": 0,
            "cate_name": "资讯",
            "column_id": "资讯",
            "relativeTime": "4天前"
        },
        {
            "id": 1551064,
            "content": "嗨！尾巴们，晚上好，今天是 8 月 11 日。①&nbs...",
            "category_id": 396,
            "tag_id": "4547",
            "title": "【晚报】比亚迪方程豹将于 16 日举行发布会 /...",
            "cover": "http://s1.dgtle.com/dgtle_img/news/2023/08/11/21f49202308111754271181.jpeg?imageView2/2/w/600/q/100/format/jpg",
            "imgs_url": "",
            "num": "",
            "unit": "",
            "from": "",
            "img_source": "",
            "status": 2,
            "audit": 0,
            "viewnum": 1352,
            "commentnum": 0,
            "liketimes": 1,
            "favtimes": 0,
            "pushed": 0,
            "push_at": 0,
            "recommend": 0,
            "digest": 0,
            "created_at": 1691747985,
            "updated_at": 1691824133,
            "is_like": 0,
            "cate_name": "资讯",
            "column_id": "资讯",
            "relativeTime": "4天前"
        },
        {
            "id": 1551063,
            "content": "比亚迪旗下方程豹汽车今日下午通过官微宣布，8 月 16 ...",
            "category_id": 396,
            "tag_id": "4547",
            "title": "比亚迪方程豹：8 月 16 日举行品牌暨技术发布...",
            "cover": "http://s1.dgtle.com/dgtle_img/news/2023/08/11/5a301202308111610383437.jpeg?imageView2/2/w/600/q/100/format/jpg",
            "imgs_url": "",
            "num": "",
            "unit": "",
            "from": "",
            "img_source": "",
            "status": 2,
            "audit": 0,
            "viewnum": 1967,
            "commentnum": 0,
            "liketimes": 7,
            "favtimes": 0,
            "pushed": 0,
            "push_at": 0,
            "recommend": 0,
            "digest": 0,
            "created_at": 1691741439,
            "updated_at": 1691845112,
            "is_like": 0,
            "cate_name": "资讯",
            "column_id": "资讯",
            "relativeTime": "4天前"
        },
        {
            "id": 1551062,
            "content": "小米 Redmi 官方宣布，K60 至尊版成为首款搭载 ...",
            "category_id": 396,
            "tag_id": "4547",
            "title": "小米官宣：K60 至尊版为 Redmi 首款搭载...",
            "cover": "http://s1.dgtle.com/dgtle_img/news/2023/08/11/af845202308111606215941.jpeg?imageView2/2/w/600/q/100/format/jpg",
            "imgs_url": "",
            "num": "",
            "unit": "",
            "from": "",
            "img_source": "",
            "status": 2,
            "audit": 0,
            "viewnum": 2942,
            "commentnum": 7,
            "liketimes": 6,
            "favtimes": 0,
            "pushed": 0,
            "push_at": 0,
            "recommend": 0,
            "digest": 0,
            "created_at": 1691741183,
            "updated_at": 1691903975,
            "is_like": 0,
            "cate_name": "资讯",
            "column_id": "资讯",
            "relativeTime": "4天前"
        },
        {
            "id": 1551060,
            "content": "小米 Redmi 官宣 K60 至尊版手机提供 24GB...",
            "category_id": 396,
            "tag_id": "4547",
            "title": "小米 Redmi K60 至尊版手机官宣 24G...",
            "cover": "http://s1.dgtle.com/dgtle_img/news/2023/08/11/b8883202308111205006426.jpeg?imageView2/2/w/600/q/100/format/jpg",
            "imgs_url": "",
            "num": "",
            "unit": "",
            "from": "",
            "img_source": "",
            "status": 2,
            "audit": 0,
            "viewnum": 2383,
            "commentnum": 3,
            "liketimes": 5,
            "favtimes": 0,
            "pushed": 0,
            "push_at": 0,
            "recommend": 0,
            "digest": 0,
            "created_at": 1691726731,
            "updated_at": 1691765465,
            "is_like": 0,
            "cate_name": "资讯",
            "column_id": "资讯",
            "relativeTime": "4天前"
        },
        {
            "id": 1551059,
            "content": "比亚迪近期预热新车都采用了「挤牙膏」的方式，一点一点地将...",
            "category_id": 396,
            "tag_id": "4547",
            "title": "比亚迪新车宋 L 完整外观公开：配无框车门 / ...",
            "cover": "http://s1.dgtle.com/dgtle_img/news/2023/08/11/e5cb320230811110548404.jpeg?imageView2/2/w/600/q/100/format/jpg",
            "imgs_url": "",
            "num": "",
            "unit": "",
            "from": "",
            "img_source": "",
            "status": 2,
            "audit": 0,
            "viewnum": 2913,
            "commentnum": 6,
            "liketimes": 6,
            "favtimes": 0,
            "pushed": 0,
            "push_at": 0,
            "recommend": 0,
            "digest": 0,
            "created_at": 1691723150,
            "updated_at": 1691840055,
            "is_like": 0,
            "cate_name": "资讯",
            "column_id": "资讯",
            "relativeTime": "4天前"
        },
        {
            "id": 1551058,
            "content": "荣耀终端有限公司一款型号为&nbsp;VCA-AN00 ...",
            "category_id": 396,
            "tag_id": "4547",
            "title": "消息称荣耀首款外折屏手机 Magic Vs2 入...",
            "cover": "http://s1.dgtle.com/dgtle_img/news/2023/08/11/fefa5202308111058159266.jpeg?imageView2/2/w/600/q/100/format/jpg",
            "imgs_url": "",
            "num": "",
            "unit": "",
            "from": "",
            "img_source": "",
            "status": 2,
            "audit": 0,
            "viewnum": 1622,
            "commentnum": 3,
            "liketimes": 3,
            "favtimes": 0,
            "pushed": 0,
            "push_at": 0,
            "recommend": 0,
            "digest": 0,
            "created_at": 1691722808,
            "updated_at": 1691765515,
            "is_like": 0,
            "cate_name": "资讯",
            "column_id": "资讯",
            "relativeTime": "4天前"
        },
        {
            "id": 1551057,
            "content": "继 8 月 7 日余承东首次预热之后，今日华为智选车首款...",
            "category_id": 396,
            "tag_id": "4547",
            "title": "华为智选车首款纯电轿跑实车亮相：首搭鸿蒙 Har...",
            "cover": "http://s1.dgtle.com/dgtle_img/news/2023/08/11/430b3202308111046579970_1800_500.jpeg?imageView2/2/w/600/q/100/format/jpg",
            "imgs_url": "",
            "num": "",
            "unit": "",
            "from": "",
            "img_source": "",
            "status": 2,
            "audit": 0,
            "viewnum": 2219,
            "commentnum": 1,
            "liketimes": 7,
            "favtimes": 0,
            "pushed": 0,
            "push_at": 0,
            "recommend": 0,
            "digest": 0,
            "created_at": 1691722020,
            "updated_at": 1691845291,
            "is_like": 0,
            "cate_name": "资讯",
            "column_id": "资讯",
            "relativeTime": "5天前"
        },
        {
            "id": 1551056,
            "content": "极氪汽车宣布 001 车型立减 3 万-3.7 万元，起...",
            "category_id": 396,
            "tag_id": "4547",
            "title": "极氪 001 汽车官宣降价 3 万-3.7 万元...",
            "cover": "http://s1.dgtle.com/dgtle_img/news/2023/08/11/20d2c202308111044102719.png?imageView2/2/w/600/q/100/format/jpg",
            "imgs_url": "",
            "num": "",
            "unit": "",
            "from": "",
            "img_source": "",
            "status": 2,
            "audit": 0,
            "viewnum": 2543,
            "commentnum": 5,
            "liketimes": 5,
            "favtimes": 0,
            "pushed": 0,
            "push_at": 0,
            "recommend": 0,
            "digest": 0,
            "created_at": 1691721852,
            "updated_at": 1691966259,
            "is_like": 0,
            "cate_name": "资讯",
            "column_id": "资讯",
            "relativeTime": "5天前"
        },
        {
            "id": 1551055,
            "content": "小米今日官宣，Redmi K60 至尊版手机将于 8 月...",
            "category_id": 396,
            "tag_id": "4547",
            "title": "小米 Redmi K60 至尊版手机亮相：双配色...",
            "cover": "http://s1.dgtle.com/dgtle_img/news/2023/08/11/b6ce8202308111042564432_1800_500.jpeg?imageView2/2/w/600/q/100/format/jpg",
            "imgs_url": "",
            "num": "",
            "unit": "",
            "from": "",
            "img_source": "",
            "status": 2,
            "audit": 0,
            "viewnum": 1552,
            "commentnum": 0,
            "liketimes": 6,
            "favtimes": 0,
            "pushed": 0,
            "push_at": 0,
            "recommend": 0,
            "digest": 0,
            "created_at": 1691721780,
            "updated_at": 1691817052,
            "is_like": 0,
            "cate_name": "资讯",
            "column_id": "资讯",
            "relativeTime": "5天前"
        }
    ],
    "_links": {
        "self": {
            "href": "https://opser.api.dgtle.com/v1/news/396?last_id=1551065&page=1&per-page=10"
        },
        "next": {
            "href": "https://opser.api.dgtle.com/v1/news/396?last_id=1551065&page=2&per-page=10"
        },
        "last": {
            "href": "https://opser.api.dgtle.com/v1/news/396?last_id=1551065&page=1497&per-page=10"
        }
    },
    "_meta": {
        "totalCount": 14966,
        "pageCount": 1497,
        "currentPage": 1,
        "perPage": 10
    }
}