{
    "items": [
        {
            "id": 1537343,
            "title": "Hi nova 11新品发布会",
            "cover_img_url": "/dgtle_img/live/2023/07/16/d3360202307162247117054_1800_500.jpeg",
            "content": "<p>7月17日14:30，Hi nova 11和朋友们的出彩聚会正式开启！</p>",
            "category_id": 0,
            "start_time": 1689575400,
            "end_time": 1689579000,
            "type": 1,
            "video_url": "<iframe src='https://www.dgtle.com/caster-98-1-1.html'></iframe>",
            "commentnum": 0,
            "membernum": 502304,
            "status": 2,
            "pushed": 0,
            "push_at": null,
            "recommend": 0,
            "digest": 0,
            "created_at": 1689518831,
            "comment_closed": 1,
            "tags": [],
            "author": {
                "id": "49mokn7p",
                "username": "heyagan",
                "avatar_path": "http://s1.dgtle.com/dgtle_img/user/2021/08/17/86475202108171542399768.jpg?imageView2/2/w/100/q/100/format/jpg",
                "introduce": "",
                "identification": 0,
                "group": 1,
                "identification_title": null,
                "user_auth_rule": []
            },
            "cover": "http://s1.dgtle.com/dgtle_img/live/2023/07/16/d3360202307162247117054_1800_500.jpeg",
            "extra": {
                "start_time": 1689575400,
                "end_time": 1689579000,
                "live_type": 1,
                "live_status": 2
            }
        },
        {
            "id": 1537342,
            "title": "荣耀Magic V2 暨全场景新品发布会",
            "cover_img_url": "/dgtle_img/live/2023/07/12/89cfb202307121111311421_1800_500.png",
            "content": "<p>北京时间 2023 年 7 月 12 日 19:00 分，从进步，到进化！荣耀Magic V2 暨全场景新品发布会正式开始，我们不见不散！</p><p><br/></p>",
            "category_id": 0,
            "start_time": 1689159600,
            "end_time": 1689168600,
            "type": 1,
            "video_url": "<iframe src='https://www.dgtle.com/caster-97-1-1.html'></iframe>",
            "commentnum": 0,
            "membernum": 565650,
            "status": 2,
            "pushed": 0,
            "push_at": null,
            "recommend": 0,
            "digest": 0,
            "created_at": 1689131491,
            "comment_closed": 1,
            "tags": [],
            "author": {
                "id": "49mokn7p",
                "username": "heyagan",
                "avatar_path": "http://s1.dgtle.com/dgtle_img/user/2021/08/17/86475202108171542399768.jpg?imageView2/2/w/100/q/100/format/jpg",
                "introduce": "",
                "identification": 0,
                "group": 1,
                "identification_title": null,
                "user_auth_rule": []
            },
            "cover": "http://s1.dgtle.com/dgtle_img/live/2023/07/12/89cfb202307121111311421_1800_500.png",
            "extra": {
                "start_time": 1689159600,
                "end_time": 1689168600,
                "live_type": 1,
                "live_status": 2
            }
        },
        {
            "id": 1537341,
            "title": "iQOO 11S新品发布会",
            "cover_img_url": "/dgtle_img/live/2023/07/03/75c08202307031352395518.jpeg",
            "content": "<p>北京时间 2023年7月4日19:00 ，iQOO 11S新品发布会正式开始，我们不见不散！</p>",
            "category_id": 0,
            "start_time": 1688468400,
            "end_time": 1688472000,
            "type": 1,
            "video_url": "<iframe src='https://www.dgtle.com/caster-96-1-1.html'></iframe>",
            "commentnum": 0,
            "membernum": 521158,
            "status": 2,
            "pushed": 0,
            "push_at": null,
            "recommend": 0,
            "digest": 0,
            "created_at": 1688363559,
            "comment_closed": 1,
            "tags": [],
            "author": {
                "id": "49mokn7p",
                "username": "heyagan",
                "avatar_path": "http://s1.dgtle.com/dgtle_img/user/2021/08/17/86475202108171542399768.jpg?imageView2/2/w/100/q/100/format/jpg",
                "introduce": "",
                "identification": 0,
                "group": 1,
                "identification_title": null,
                "user_auth_rule": []
            },
            "cover": "http://s1.dgtle.com/dgtle_img/live/2023/07/03/75c08202307031352395518.jpeg",
            "extra": {
                "start_time": 1688468400,
                "end_time": 1688472000,
                "live_type": 1,
                "live_status": 2
            }
        },
        {
            "id": 1537340,
            "title": "越野新能源还得看坦克",
            "cover_img_url": "/dgtle_img/live/2023/06/25/540cb202306251502118989_1800_500.jpeg",
            "content": "<p>北京时间 2023年6月26日20:00，欢迎来到坦克500 Hi4-T上市发布会！</p>",
            "category_id": 0,
            "start_time": 1687780800,
            "end_time": 1687784400,
            "type": 1,
            "video_url": "<iframe src='https://www.dgtle.com/caster-95-1-1.html'></iframe>",
            "commentnum": 0,
            "membernum": 153345,
            "status": 2,
            "pushed": 0,
            "push_at": null,
            "recommend": 0,
            "digest": 0,
            "created_at": 1687676531,
            "comment_closed": 1,
            "tags": [],
            "author": {
                "id": "49mokn7p",
                "username": "heyagan",
                "avatar_path": "http://s1.dgtle.com/dgtle_img/user/2021/08/17/86475202108171542399768.jpg?imageView2/2/w/100/q/100/format/jpg",
                "introduce": "",
                "identification": 0,
                "group": 1,
                "identification_title": null,
                "user_auth_rule": []
            },
            "cover": "http://s1.dgtle.com/dgtle_img/live/2023/06/25/540cb202306251502118989_1800_500.jpeg",
            "extra": {
                "start_time": 1687780800,
                "end_time": 1687784400,
                "live_type": 1,
                "live_status": 2
            }
        },
        {
            "id": 1537339,
            "title": "MEIZU & JD 20th 生日会直播活动",
            "cover_img_url": "/dgtle_img/live/2023/06/16/2fb39202306161523442488.jpeg",
            "content": "<p>热爱同行 20 周年，MEIZU &amp; JD 20th 生日会直播活动，6 月 16 日 20:00 全网多平台同步直播，与你一起回顾经典，共赴未来。</p>",
            "category_id": 0,
            "start_time": 1686916800,
            "end_time": 1686920400,
            "type": 1,
            "video_url": "<iframe src='https://www.dgtle.com/caster-94-1-1.html'></iframe>",
            "commentnum": 0,
            "membernum": 208890,
            "status": 2,
            "pushed": 0,
            "push_at": null,
            "recommend": 0,
            "digest": 0,
            "created_at": 1686900224,
            "comment_closed": 1,
            "tags": [],
            "author": {
                "id": "49mokn7p",
                "username": "heyagan",
                "avatar_path": "http://s1.dgtle.com/dgtle_img/user/2021/08/17/86475202108171542399768.jpg?imageView2/2/w/100/q/100/format/jpg",
                "introduce": "",
                "identification": 0,
                "group": 1,
                "identification_title": null,
                "user_auth_rule": []
            },
            "cover": "http://s1.dgtle.com/dgtle_img/live/2023/06/16/2fb39202306161523442488.jpeg",
            "extra": {
                "start_time": 1686916800,
                "end_time": 1686920400,
                "live_type": 1,
                "live_status": 2
            }
        },
        {
            "id": 1537338,
            "title": "创领新能源 激荡新时代",
            "cover_img_url": "/dgtle_img/live/2023/06/15/299b1202306151703521132_1800_500.jpeg",
            "content": "<p>北京时间 2023年6月16日11:00 欢迎来到粤港澳大湾区国际汽车博览会魏牌&amp;坦克发布会</p>",
            "category_id": 0,
            "start_time": 1686884400,
            "end_time": 1686886200,
            "type": 1,
            "video_url": "<iframe src='https://www.dgtle.com/caster-93-1-1.html'></iframe>",
            "commentnum": 0,
            "membernum": 210084,
            "status": 2,
            "pushed": 0,
            "push_at": null,
            "recommend": 0,
            "digest": 0,
            "created_at": 1686819832,
            "comment_closed": 1,
            "tags": [],
            "author": {
                "id": "49mokn7p",
                "username": "heyagan",
                "avatar_path": "http://s1.dgtle.com/dgtle_img/user/2021/08/17/86475202108171542399768.jpg?imageView2/2/w/100/q/100/format/jpg",
                "introduce": "",
                "identification": 0,
                "group": 1,
                "identification_title": null,
                "user_auth_rule": []
            },
            "cover": "http://s1.dgtle.com/dgtle_img/live/2023/06/15/299b1202306151703521132_1800_500.jpeg",
            "extra": {
                "start_time": 1686884400,
                "end_time": 1686886200,
                "live_type": 1,
                "live_status": 2
            }
        },
        {
            "id": 1537337,
            "title": "vivo S17系列新品发布会",
            "cover_img_url": "/dgtle_img/live/2023/05/30/7f3bc202305301424299500_1800_500.jpeg",
            "content": "<p>北京时间 2023年5月31日14:30 ，vivo S17系列新品发布会正式开始，我们不见不散！</p>",
            "category_id": 0,
            "start_time": 1685514600,
            "end_time": 1685518200,
            "type": 1,
            "video_url": "<iframe src='https://www.dgtle.com/caster-92-1-1.html'></iframe>",
            "commentnum": 0,
            "membernum": 509902,
            "status": 2,
            "pushed": 0,
            "push_at": null,
            "recommend": 0,
            "digest": 0,
            "created_at": 1685427869,
            "comment_closed": 1,
            "tags": [],
            "author": {
                "id": "49mokn7p",
                "username": "heyagan",
                "avatar_path": "http://s1.dgtle.com/dgtle_img/user/2021/08/17/86475202108171542399768.jpg?imageView2/2/w/100/q/100/format/jpg",
                "introduce": "",
                "identification": 0,
                "group": 1,
                "identification_title": null,
                "user_auth_rule": []
            },
            "cover": "http://s1.dgtle.com/dgtle_img/live/2023/05/30/7f3bc202305301424299500_1800_500.jpeg",
            "extra": {
                "start_time": 1685514600,
                "end_time": 1685518200,
                "live_type": 1,
                "live_status": 2
            }
        },
        {
            "id": 1537336,
            "title": "iQOO Neo8系列新品发布会",
            "cover_img_url": "/dgtle_img/live/2023/05/22/a7631202305221752517777.jpeg",
            "content": "<p>北京时间 2023年5月23日19:00 ，iQOO Neo8系列新品发布会正式开始，我们不见不散！</p>",
            "category_id": 0,
            "start_time": 1684839600,
            "end_time": 1684843200,
            "type": 1,
            "video_url": "<iframe src='https://www.dgtle.com/caster-91-1-1.html'></iframe>",
            "commentnum": 0,
            "membernum": 502220,
            "status": 2,
            "pushed": 0,
            "push_at": null,
            "recommend": 0,
            "digest": 0,
            "created_at": 1684749171,
            "comment_closed": 1,
            "tags": [],
            "author": {
                "id": "49mokn7p",
                "username": "heyagan",
                "avatar_path": "http://s1.dgtle.com/dgtle_img/user/2021/08/17/86475202108171542399768.jpg?imageView2/2/w/100/q/100/format/jpg",
                "introduce": "",
                "identification": 0,
                "group": 1,
                "identification_title": null,
                "user_auth_rule": []
            },
            "cover": "http://s1.dgtle.com/dgtle_img/live/2023/05/22/a7631202305221752517777.jpeg",
            "extra": {
                "start_time": 1684839600,
                "end_time": 1684843200,
                "live_type": 1,
                "live_status": 2
            }
        },
        {
            "id": 1537335,
            "title": "华为夏季全场景新品发布会",
            "cover_img_url": "/dgtle_img/live/2023/05/16/2ff8e202305161242499480.jpeg",
            "content": "<p>北京时间5月18日19:30，华为夏季全场景新品发布会，我们不见不散。</p><p><br/></p>",
            "category_id": 0,
            "start_time": 1684408800,
            "end_time": 1684416600,
            "type": 1,
            "video_url": "<iframe src='https://www.dgtle.com/caster-90-1-1.html'></iframe>",
            "commentnum": 0,
            "membernum": 542290,
            "status": 2,
            "pushed": 0,
            "push_at": null,
            "recommend": 0,
            "digest": 0,
            "created_at": 1684212169,
            "comment_closed": 1,
            "tags": [],
            "author": {
                "id": "49mokn7p",
                "username": "heyagan",
                "avatar_path": "http://s1.dgtle.com/dgtle_img/user/2021/08/17/86475202108171542399768.jpg?imageView2/2/w/100/q/100/format/jpg",
                "introduce": "",
                "identification": 0,
                "group": 1,
                "identification_title": null,
                "user_auth_rule": []
            },
            "cover": "http://s1.dgtle.com/dgtle_img/live/2023/05/16/2ff8e202305161242499480.jpeg",
            "extra": {
                "start_time": 1684408800,
                "end_time": 1684416600,
                "live_type": 1,
                "live_status": 2
            }
        },
        {
            "id": 1537334,
            "title": "神盾电池安全系统基础安全测试直播",
            "cover_img_url": "/dgtle_img/live/2023/05/12/f749a20230512135126746.jpeg",
            "content": "<p>电池安全测试的“珠穆朗玛峰”——电池针刺，只是神盾电池安全的入门标准？</p><p>5月13日 15:30 神盾电池安全系统，首次基础安全测试直播。</p><p><br/></p>",
            "category_id": 0,
            "start_time": 1683963000,
            "end_time": 1683966600,
            "type": 1,
            "video_url": "<iframe src='https://www.dgtle.com/caster-89-1-1.html'></iframe>",
            "commentnum": 0,
            "membernum": 203356,
            "status": 2,
            "pushed": 0,
            "push_at": null,
            "recommend": 0,
            "digest": 0,
            "created_at": 1683870686,
            "comment_closed": 1,
            "tags": [],
            "author": {
                "id": "49mokn7p",
                "username": "heyagan",
                "avatar_path": "http://s1.dgtle.com/dgtle_img/user/2021/08/17/86475202108171542399768.jpg?imageView2/2/w/100/q/100/format/jpg",
                "introduce": "",
                "identification": 0,
                "group": 1,
                "identification_title": null,
                "user_auth_rule": []
            },
            "cover": "http://s1.dgtle.com/dgtle_img/live/2023/05/12/f749a20230512135126746.jpeg",
            "extra": {
                "start_time": 1683963000,
                "end_time": 1683966600,
                "live_type": 1,
                "live_status": 2
            }
        }
    ],
    "_links": {
        "self": {
            "href": "https://opser.api.dgtle.com/v1/live/0?page=1&per-page=10"
        },
        "next": {
            "href": "https://opser.api.dgtle.com/v1/live/0?page=2&per-page=10"
        },
        "last": {
            "href": "https://opser.api.dgtle.com/v1/live/0?page=47&per-page=10"
        }
    },
    "_meta": {
        "totalCount": 466,
        "pageCount": 47,
        "currentPage": 1,
        "perPage": 10
    }
}