{
    "items": [
        {
            "_id": "64b4b1314e14774b2958cd96",
            "id": 1550799,
            "content": "有木马！禁止重要机构使用 iPhone 和苹果的产品。",
            "title": "",
            "category_id": 388,
            "type": 15,
            "cover": "http://s1.dgtle.com/dgtle_img/news/2023/07/17/e395b202307171113259727.png?imageView2/2/w/960/q/100/format/jpg",
            "imgs_url": "",
            "user_id": 1122938,
            "from": "俄罗斯有关部门",
            "num": "",
            "unit": "",
            "commentnum": 10,
            "membernum": 2035,
            "extra": [],
            "liketimes": 2,
            "shared": 0,
            "created_at": 1689563608,
            "updated_at": 1689596639,
            "group_id": 2023071723,
            "top": 0,
            "status": 2,
            "tag_id": [
                19024
            ],
            "cate_name": "每日一言",
            "is_like": 0,
            "relativeTime": "12小时前",
            "location": null
        },
        {
            "_id": "64b402f04e14771cd90a0fd8",
            "id": 1537343,
            "content": "7月17日14:30，Hi nova 11和朋友们的出彩...",
            "title": "Hi nova 11新品发布会",
            "category_id": null,
            "type": 5,
            "cover": "http://s1.dgtle.com/dgtle_img/live/2023/07/16/d3360202307162247117054_1800_500.jpeg?imageView2/2/w/960/q/100/format/jpg",
            "imgs_url": [],
            "user_id": 1115549,
            "from": "",
            "num": "",
            "unit": "",
            "commentnum": 0,
            "membernum": 502239,
            "extra": {
                "start_time": 1689575400,
                "end_time": 1689579000,
                "live_type": 1,
                "live_status": 2
            },
            "liketimes": 0,
            "shared": 0,
            "created_at": 1689518831,
            "updated_at": 1689579005,
            "group_id": 2023071717,
            "top": 0,
            "status": 2,
            "tag_id": "",
            "cate_name": "直播",
            "is_like": 0,
            "relativeTime": "1天前",
            "location": null
        },
        {
            "_id": "64b3c6784e147708cf2c64d8",
            "id": 1550798,
            "content": "2023上海国际潜水暨度假观光展（Diving Reso...",
            "title": "登上亚洲最具影响力展会， 华为WATCH Ult...",
            "category_id": 396,
            "type": 14,
            "cover": "http://s1.dgtle.com/dgtle_img/news/2023/07/16/dcd33202307161830542582.png?imageView2/2/w/960/q/100/format/jpg",
            "imgs_url": "",
            "user_id": 1122938,
            "from": "",
            "num": "",
            "unit": "",
            "commentnum": 0,
            "membernum": 430,
            "extra": [],
            "liketimes": 0,
            "shared": 0,
            "created_at": 1689503623,
            "updated_at": 1689581480,
            "group_id": 2023071723,
            "top": 0,
            "status": 2,
            "tag_id": [
                4547
            ],
            "cate_name": "资讯",
            "is_like": 0,
            "relativeTime": "1天前",
            "location": "广东"
        },
        {
            "_id": "64b272f14e14770b1c6a005c",
            "id": 1550797,
            "content": "7月已至，又一批青年向学生时代作别。四年前，他们怀揣希望...",
            "title": "当代新物种：河蚌青年",
            "category_id": 396,
            "type": 14,
            "cover": "http://s1.dgtle.com/dgtle_img/news/2023/07/15/e18c5202307151825077179_1800_500.png?imageView2/2/w/960/q/100/format/jpg",
            "imgs_url": "",
            "user_id": 1122938,
            "from": "",
            "num": "",
            "unit": "",
            "commentnum": 1,
            "membernum": 623,
            "extra": [],
            "liketimes": 2,
            "shared": 0,
            "created_at": 1689416743,
            "updated_at": 1689563869,
            "group_id": 2023071723,
            "top": 0,
            "status": 2,
            "tag_id": [
                4547
            ],
            "cate_name": "资讯",
            "is_like": 0,
            "relativeTime": "2天前",
            "location": "广东"
        },
        {
            "_id": "64b272194e1477298448b3fb",
            "id": 1550796,
            "content": "超智驾轿跑SUV小鹏G6正式开启全国多城规模交付，并于小...",
            "title": "刷新交付速度！小鹏G6今日开启全国规模交付",
            "category_id": 396,
            "type": 14,
            "cover": "http://s1.dgtle.com/dgtle_img/news/2023/07/15/3fdd6202307151817596224_1800_500.png?imageView2/2/w/960/q/100/format/jpg",
            "imgs_url": "",
            "user_id": 1122938,
            "from": "",
            "num": "",
            "unit": "",
            "commentnum": 0,
            "membernum": 489,
            "extra": [],
            "liketimes": 1,
            "shared": 0,
            "created_at": 1689416342,
            "updated_at": 1689425100,
            "group_id": 2023071722,
            "top": 0,
            "status": 2,
            "tag_id": [
                4547
            ],
            "cate_name": "资讯",
            "is_like": 0,
            "relativeTime": "2天前",
            "location": "广东"
        },
        {
            "_id": "64b0f8fcd97d2f3f1e1e1bc2",
            "id": 1550795,
            "content": "7月14日，方程豹汽车正式发布品牌LOGO。该标识的内涵...",
            "title": "方程豹发布LOGO：以秩序之美、感性之力聚合“豹...",
            "category_id": 396,
            "type": 14,
            "cover": "http://s1.dgtle.com/dgtle_img/news/2023/07/14/31a5a202307141527362908.jpeg?imageView2/2/w/960/q/100/format/jpg",
            "imgs_url": "",
            "user_id": 1122938,
            "from": "",
            "num": "",
            "unit": "",
            "commentnum": 0,
            "membernum": 889,
            "extra": [],
            "liketimes": 2,
            "shared": 0,
            "created_at": 1689319784,
            "updated_at": 1689491830,
            "group_id": 2023071722,
            "top": 0,
            "status": 2,
            "tag_id": [
                4547
            ],
            "cate_name": "资讯",
            "is_like": 0,
            "relativeTime": "3天前",
            "location": "广东"
        },
        {
            "_id": "64b0d55b4e14777480490e93",
            "id": 1550794,
            "content": "7月13日，在深圳华为总部G区旗舰店，华为举办2023创...",
            "title": "尊重知识产权，跨越创新边界：华为Mate X3展...",
            "category_id": 396,
            "type": 14,
            "cover": "http://s1.dgtle.com/dgtle_img/news/2023/07/14/583b7202307141255526896_1800_500.png?imageView2/2/w/960/q/100/format/jpg",
            "imgs_url": "",
            "user_id": 1122938,
            "from": "",
            "num": "",
            "unit": "",
            "commentnum": 0,
            "membernum": 842,
            "extra": [],
            "liketimes": 2,
            "shared": 0,
            "created_at": 1689310740,
            "updated_at": 1689491812,
            "group_id": 2023071718,
            "top": 0,
            "status": 2,
            "tag_id": [
                4547
            ],
            "cate_name": "资讯",
            "is_like": 0,
            "relativeTime": "3天前",
            "location": "广东"
        },
        {
            "_id": "64b0d51a4e14773dfa665591",
            "id": 1550793,
            "content": "7月13日，在深圳华为总部G区旗舰店，华为举办2023创...",
            "title": "创新成果沿途下蛋，知识产权保护给华为P60 Pr...",
            "category_id": 396,
            "type": 14,
            "cover": "http://s1.dgtle.com/dgtle_img/news/2023/07/14/3d71e202307141254334239_1800_500.png?imageView2/2/w/960/q/100/format/jpg",
            "imgs_url": "",
            "user_id": 1122938,
            "from": "",
            "num": "",
            "unit": "",
            "commentnum": 0,
            "membernum": 878,
            "extra": [],
            "liketimes": 1,
            "shared": 0,
            "created_at": 1689310704,
            "updated_at": 1689314942,
            "group_id": 2023071722,
            "top": 0,
            "status": 2,
            "tag_id": [
                4547
            ],
            "cate_name": "资讯",
            "is_like": 0,
            "relativeTime": "3天前",
            "location": "广东"
        },
        {
            "_id": "64b0ca464e147725320e9726",
            "id": 1550792,
            "content": "我有点亲华，中国被低估了，我认为中国人民真的很棒，那里有很多正能量。",
            "title": "",
            "category_id": 388,
            "type": 15,
            "cover": "http://s1.dgtle.com/dgtle_img/news/2023/07/14/50106202307141207595641.jpeg?imageView2/2/w/960/q/100/format/jpg",
            "imgs_url": "",
            "user_id": 1122938,
            "from": "即将发布 xAI 的马斯克",
            "num": "",
            "unit": "",
            "commentnum": 24,
            "membernum": 3770,
            "extra": [],
            "liketimes": 7,
            "shared": 0,
            "created_at": 1689307680,
            "updated_at": 1689574574,
            "group_id": 2023071723,
            "top": 0,
            "status": 2,
            "tag_id": [
                19024
            ],
            "cate_name": "每日一言",
            "is_like": 0,
            "relativeTime": "3天前",
            "location": null
        },
        {
            "_id": "64b51a4f4e147746d161a339",
            "id": 1550800,
            "content": "7月12日，荣耀在北京水立方举办了荣耀Magic V2暨...",
            "title": "荣耀赵明：今年是我们全面爆发的一年，Magic ...",
            "category_id": 396,
            "type": 14,
            "cover": "http://s1.dgtle.com/dgtle_img/news/2023/07/17/0e10e202307171839548687_1800_500.jpeg?imageView2/2/w/960/q/100/format/jpg",
            "imgs_url": "",
            "user_id": 1122938,
            "from": "",
            "num": "",
            "unit": "",
            "commentnum": 0,
            "membernum": 134,
            "extra": [],
            "liketimes": 0,
            "shared": 0,
            "created_at": 1689245520,
            "updated_at": 1689591523,
            "group_id": 2023071723,
            "top": 0,
            "status": 2,
            "tag_id": [
                4547
            ],
            "cate_name": "资讯",
            "is_like": 0,
            "relativeTime": "4天前",
            "location": "广东"
        },
        {
            "_id": "64af831fd97d2f1c1e57dc0b",
            "id": 1550791,
            "content": "自1925年诞生于丹麦斯特鲁尔，丹麦奢华生活方式视听品牌...",
            "title": "奢华、恒久、科技：Bang & Olufsen ...",
            "category_id": 396,
            "type": 14,
            "cover": "http://s1.dgtle.com/dgtle_img/news/2023/07/13/59f41202307131254552198_1800_500.png?imageView2/2/w/960/q/100/format/jpg",
            "imgs_url": "",
            "user_id": 1122938,
            "from": "",
            "num": "",
            "unit": "",
            "commentnum": 0,
            "membernum": 1153,
            "extra": [],
            "liketimes": 0,
            "shared": 0,
            "created_at": 1689224098,
            "updated_at": 1689224098,
            "group_id": 2023071723,
            "top": 0,
            "status": 2,
            "tag_id": [
                4547
            ],
            "cate_name": "资讯",
            "is_like": 0,
            "relativeTime": "4天前",
            "location": "广东"
        },
        {
            "_id": "64af733b4e14773a1b325f42",
            "id": 1550789,
            "content": "近日，创维电视宣布推出新一代MiniLED壁纸电视A7D...",
            "title": "四大全新专利！创维率先推出新一代MiniLED壁...",
            "category_id": 396,
            "type": 14,
            "cover": "http://s1.dgtle.com/dgtle_img/news/2023/07/13/0ccc1202307131145587822_1800_500.png?imageView2/2/w/960/q/100/format/jpg",
            "imgs_url": "",
            "user_id": 1122938,
            "from": "",
            "num": "",
            "unit": "",
            "commentnum": 0,
            "membernum": 1215,
            "extra": [],
            "liketimes": 1,
            "shared": 0,
            "created_at": 1689220822,
            "updated_at": 1689491836,
            "group_id": 2023071722,
            "top": 0,
            "status": 2,
            "tag_id": [
                4547
            ],
            "cate_name": "资讯",
            "is_like": 0,
            "relativeTime": "4天前",
            "location": "广东"
        },
        {
            "_id": "64aeae85d97d2f38826c9faf",
            "id": 1550785,
            "content": "【2023年7月12日，中国北京】7月12日，荣耀全新一...",
            "title": "荣耀Magic V2正式发布，折叠屏手机进入毫米...",
            "category_id": 396,
            "type": 14,
            "cover": "http://s1.dgtle.com/dgtle_img/news/2023/07/12/80e0e20230712214616544_1800_500.png?imageView2/2/w/960/q/100/format/jpg",
            "imgs_url": "",
            "user_id": 1122938,
            "from": "",
            "num": "",
            "unit": "",
            "commentnum": 0,
            "membernum": 1349,
            "extra": [],
            "liketimes": 1,
            "shared": 0,
            "created_at": 1689219678,
            "updated_at": 1689219678,
            "group_id": 2023071723,
            "top": 0,
            "status": 2,
            "tag_id": [
                4547
            ],
            "cate_name": "资讯",
            "is_like": 0,
            "relativeTime": "4天前",
            "location": "广东"
        },
        {
            "_id": "64af7189d97d2f5f86030e26",
            "id": 1550788,
            "content": "荣耀Magic V2 的目标不是与折叠屏手机竞争，而是 iPhone 14 和未来的 iPhone 15。",
            "title": "",
            "category_id": 388,
            "type": 15,
            "cover": "http://s1.dgtle.com/dgtle_img/news/2023/07/13/9a9c7202307131136552257_1800_500.jpeg?imageView2/2/w/960/q/100/format/jpg",
            "imgs_url": "",
            "user_id": 1122938,
            "from": "赵明",
            "num": "",
            "unit": "",
            "commentnum": 18,
            "membernum": 1417,
            "extra": [],
            "liketimes": 1,
            "shared": 0,
            "created_at": 1689219490,
            "updated_at": 1689415498,
            "group_id": 2023071721,
            "top": 0,
            "status": 2,
            "tag_id": [
                19024
            ],
            "cate_name": "每日一言",
            "is_like": 0,
            "relativeTime": "4天前",
            "location": null
        },
        {
            "_id": "64aebbf1d97d2f18903b15db",
            "id": 1550787,
            "content": "7月12日，荣耀Magic V2暨全场景新品发布会在北京...",
            "title": "业界首发裸耳3D空间音频！荣耀平板MagicPa...",
            "category_id": 396,
            "type": 14,
            "cover": "http://s1.dgtle.com/dgtle_img/news/2023/07/12/7ce57202307122243372399_1800_500.png?imageView2/2/w/960/q/100/format/jpg",
            "imgs_url": "",
            "user_id": 1122938,
            "from": "",
            "num": "",
            "unit": "",
            "commentnum": 0,
            "membernum": 1160,
            "extra": [],
            "liketimes": 1,
            "shared": 0,
            "created_at": 1689173303,
            "updated_at": 1689244753,
            "group_id": 2023071723,
            "top": 0,
            "status": 2,
            "tag_id": [
                4547
            ],
            "cate_name": "资讯",
            "is_like": 0,
            "relativeTime": "5天前",
            "location": "广东"
        },
        {
            "_id": "64aebbc7d97d2f7d374de462",
            "id": 1550786,
            "content": "【北京时间，2023年7月12日】在荣耀Magic V2...",
            "title": "全新穿戴产品荣耀手表4正式发布，成为首个搭载Ma...",
            "category_id": 396,
            "type": 14,
            "cover": "http://s1.dgtle.com/dgtle_img/news/2023/07/12/77fee202307122245275430_1800_500.png?imageView2/2/w/960/q/100/format/jpg",
            "imgs_url": "",
            "user_id": 1122938,
            "from": "",
            "num": "",
            "unit": "",
            "commentnum": 0,
            "membernum": 1203,
            "extra": [],
            "liketimes": 1,
            "shared": 0,
            "created_at": 1689173235,
            "updated_at": 1689244755,
            "group_id": 2023071723,
            "top": 0,
            "status": 2,
            "tag_id": [
                4547
            ],
            "cate_name": "资讯",
            "is_like": 0,
            "relativeTime": "5天前",
            "location": "广东"
        },
        {
            "_id": "64ae19e34e147730ca70b19e",
            "id": 1537342,
            "content": "北京时间 2023 年 7 月 12 日 19:00 分...",
            "title": "荣耀Magic V2 暨全场景新品发布会",
            "category_id": null,
            "type": 5,
            "cover": "http://s1.dgtle.com/dgtle_img/live/2023/07/12/89cfb202307121111311421_1800_500.png?imageView2/2/w/960/q/100/format/jpg",
            "imgs_url": [],
            "user_id": 1115549,
            "from": "",
            "num": "",
            "unit": "",
            "commentnum": 0,
            "membernum": 565593,
            "extra": {
                "start_time": 1689159600,
                "end_time": 1689168600,
                "live_type": 1,
                "live_status": 2
            },
            "liketimes": 0,
            "shared": 0,
            "created_at": 1689131491,
            "updated_at": 1689168605,
            "group_id": 2023071720,
            "top": 0,
            "status": 2,
            "tag_id": "",
            "cate_name": "直播",
            "is_like": 0,
            "relativeTime": "5天前",
            "location": null
        },
        {
            "_id": "64acb78a4e147745cc5678ae",
            "id": 1550784,
            "content": "在名片上，我是任天堂公司的社长。在脑海里，我是一名游戏开发者。但在我的内心深处，我是一个玩家。",
            "title": "",
            "category_id": 388,
            "type": 15,
            "cover": "http://s1.dgtle.com/dgtle_img/news/2023/07/11/88978202307110959295517.jpeg?imageView2/2/w/960/q/100/format/jpg",
            "imgs_url": "",
            "user_id": 1122938,
            "from": "岩田聪(1956.12.6-2015.7.11)",
            "num": "",
            "unit": "",
            "commentnum": 8,
            "membernum": 1106,
            "extra": [],
            "liketimes": "10",
            "shared": 0,
            "created_at": 1689040804,
            "updated_at": 1689509085,
            "group_id": 2023071711,
            "top": 0,
            "status": 2,
            "tag_id": [
                19024
            ],
            "cate_name": "每日一言",
            "is_like": 0,
            "relativeTime": "6天前",
            "location": null
        },
        {
            "_id": "64ab80fcd97d2f2dc90996fb",
            "id": 1550782,
            "content": "真掌机，够强大——AYANEO AIR 1S 发布会&n...",
            "title": "真掌机，够强大——AYANEO AIR 1S 正...",
            "category_id": 396,
            "type": 14,
            "cover": "http://s1.dgtle.com/dgtle_img/news/2023/07/10/d5a8e202307101155439449_1800_500.jpeg?imageView2/2/w/960/q/100/format/jpg",
            "imgs_url": "",
            "user_id": 1122938,
            "from": "",
            "num": "",
            "unit": "",
            "commentnum": 1,
            "membernum": 2148,
            "extra": [],
            "liketimes": 0,
            "shared": 0,
            "created_at": 1688970116,
            "updated_at": 1689121820,
            "group_id": 2023071723,
            "top": 0,
            "status": 2,
            "tag_id": [
                4547
            ],
            "cate_name": "资讯",
            "is_like": 0,
            "relativeTime": "7天前",
            "location": "广东"
        },
        {
            "_id": "64ab839e4e147736b16526c3",
            "id": 1550783,
            "content": "《塞尔达传说：王国之泪》的成功在于做自己想做的事，而非复制其他游戏",
            "title": "",
            "category_id": 388,
            "type": 15,
            "cover": "http://s1.dgtle.com/dgtle_img/news/2023/07/10/18e40202307101205005530_1800_500.png?imageView2/2/w/960/q/100/format/jpg",
            "imgs_url": "",
            "user_id": 1122938,
            "from": "青沼英二",
            "num": "",
            "unit": "",
            "commentnum": 11,
            "membernum": 992,
            "extra": [],
            "liketimes": 8,
            "shared": 0,
            "created_at": 1688961900,
            "updated_at": 1689050268,
            "group_id": 2023071617,
            "top": 0,
            "status": 2,
            "tag_id": [
                19024
            ],
            "cate_name": "每日一言",
            "is_like": 0,
            "relativeTime": "7天前",
            "location": null
        }
    ],
    "_links": {
        "self": {
            "href": "https://opser.api.dgtle.com/v2/news/index?last_oid=&page=1"
        },
        "next": {
            "href": "https://opser.api.dgtle.com/v2/news/index?last_oid=&page=2"
        },
        "last": {
            "href": "https://opser.api.dgtle.com/v2/news/index?last_oid=&page=847"
        }
    },
    "_meta": {
        "totalCount": 16924,
        "pageCount": 847,
        "currentPage": 1,
        "perPage": 20
    }
}