{
  "items": [
    {
      "id": 1551053,
      "content": "若华为「满血回归」荣耀最开心，将拿出最强产品顶峰相见",
      "category_id": 388,
      "tag_id": "19024",
      "title": "",
      "cover": "http://s1.dgtle.com/dgtle_img/news/2023/08/11/ec5ac202308110935292889.jpeg?imageView2/2/w/600/q/100/format/jpg",
      "imgs_url": "",
      "num": "",
      "unit": "",
      "from": "赵明",
      "img_source": "图源网络",
      "status": 2,
      "audit": 0,
      "viewnum": 422,
      "commentnum": 3,
      "liketimes": 0,
      "favtimes": 0,
      "pushed": 0,
      "push_at": 1691717810,
      "recommend": 0,
      "digest": 0,
      "created_at": 1691717810,
      "updated_at": 1691723597,
      "is_like": 0,
      "cate_name": "每日一言",
      "column_id": "每日一言",
      "relativeTime": "7小时前"
    },
    {
      "id": 1551038,
      "content": "在一起，才是中国汽车",
      "category_id": 388,
      "tag_id": "19024",
      "title": "",
      "cover": "http://s1.dgtle.com/dgtle_img/news/2023/08/10/705e920230810102912992.jpeg?imageView2/2/w/600/q/100/format/jpg",
      "imgs_url": "",
      "num": "",
      "unit": "",
      "from": "比亚迪",
      "img_source": "图源网络",
      "status": 2,
      "audit": 0,
      "viewnum": 832,
      "commentnum": 3,
      "liketimes": 0,
      "favtimes": 0,
      "pushed": 0,
      "push_at": 1691634553,
      "recommend": 0,
      "digest": 0,
      "created_at": 1691634553,
      "updated_at": 1691717642,
      "is_like": 0,
      "cate_name": "每日一言",
      "column_id": "每日一言",
      "relativeTime": "1天前"
    },
    {
      "id": 1551020,
      "content": "「隧道车道级导航」全球首发，为重庆 3000 万用户解决导航问题！",
      "category_id": 388,
      "tag_id": "19024",
      "title": "",
      "cover": "http://s1.dgtle.com/dgtle_img/news/2023/08/09/03aa6202308091009163273.jpeg?imageView2/2/w/600/q/100/format/jpg",
      "imgs_url": "",
      "num": "",
      "unit": "",
      "from": "百度地图",
      "img_source": "图源网络",
      "status": 2,
      "audit": 0,
      "viewnum": 1133,
      "commentnum": 2,
      "liketimes": 1,
      "favtimes": 0,
      "pushed": 0,
      "push_at": 1691546964,
      "recommend": 0,
      "digest": 0,
      "created_at": 1691546964,
      "updated_at": 1691631614,
      "is_like": 0,
      "cate_name": "每日一言",
      "column_id": "每日一言",
      "relativeTime": "2天前"
    },
    {
      "id": 1551011,
      "content": "Redmi 芯片调校能力已经大幅领先同行",
      "category_id": 388,
      "tag_id": "19024",
      "title": "",
      "cover": "http://s1.dgtle.com/dgtle_img/news/2023/08/08/f4218202308081008266911_1800_500.png?imageView2/2/w/600/q/100/format/jpg",
      "imgs_url": "",
      "num": "",
      "unit": "",
      "from": "卢伟冰",
      "img_source": "图源网络",
      "status": 2,
      "audit": 0,
      "viewnum": 627,
      "commentnum": 5,
      "liketimes": 0,
      "favtimes": 0,
      "pushed": 0,
      "push_at": 1691460513,
      "recommend": 0,
      "digest": 0,
      "created_at": 1691460513,
      "updated_at": 1691540574,
      "is_like": 0,
      "cate_name": "每日一言",
      "column_id": "每日一言",
      "relativeTime": "3天前"
    },
    {
      "id": 1550999,
      "content": "拒绝向「小牛说车」出售车辆，愿意赔付双倍定金",
      "category_id": 388,
      "tag_id": "19024",
      "title": "",
      "cover": "http://s1.dgtle.com/dgtle_img/news/2023/08/07/c35cc202308071014401613.jpeg?imageView2/2/w/600/q/100/format/jpg",
      "imgs_url": "",
      "num": "",
      "unit": "",
      "from": "蔚来法务部",
      "img_source": "图源网络",
      "status": 2,
      "audit": 0,
      "viewnum": 1578,
      "commentnum": 8,
      "liketimes": 1,
      "favtimes": 0,
      "pushed": 0,
      "push_at": 1691374487,
      "recommend": 0,
      "digest": 0,
      "created_at": 1691374487,
      "updated_at": 1691573668,
      "is_like": 0,
      "cate_name": "每日一言",
      "column_id": "每日一言",
      "relativeTime": "4天前"
    },
    {
      "id": 1550975,
      "content": "正在开发 FSD 人工智能（AI）拼图上的最后一块拼图——车辆控制，有望今年年底实现完全自动驾驶。",
      "category_id": 388,
      "tag_id": "19024",
      "title": "",
      "cover": "http://s1.dgtle.com/dgtle_img/news/2023/08/04/b8f60202308040952455704.jpeg?imageView2/2/w/600/q/100/format/jpg",
      "imgs_url": "",
      "num": "",
      "unit": "",
      "from": "埃隆·马斯克",
      "img_source": "图源网络",
      "status": 2,
      "audit": 0,
      "viewnum": 824,
      "commentnum": 3,
      "liketimes": 0,
      "favtimes": 0,
      "pushed": 0,
      "push_at": 1691113972,
      "recommend": 0,
      "digest": 0,
      "created_at": 1691113972,
      "updated_at": 1691371496,
      "is_like": 0,
      "cate_name": "每日一言",
      "column_id": "每日一言",
      "relativeTime": "7天前"
    },
    {
      "id": 1550959,
      "content": "「没有迹象」表明苹果会在 2024 年推出生成式 AI 技术",
      "category_id": 388,
      "tag_id": "19024",
      "title": "",
      "cover": "http://s1.dgtle.com/dgtle_img/news/2023/08/03/2876520230803094245547.jpeg?imageView2/2/w/600/q/100/format/jpg",
      "imgs_url": "",
      "num": "",
      "unit": "",
      "from": "郭明錤",
      "img_source": "图源网络",
      "status": 2,
      "audit": 0,
      "viewnum": 317,
      "commentnum": 0,
      "liketimes": 0,
      "favtimes": 0,
      "pushed": 0,
      "push_at": 1691026968,
      "recommend": 0,
      "digest": 0,
      "created_at": 1691026968,
      "updated_at": 1691026968,
      "is_like": 0,
      "cate_name": "每日一言",
      "column_id": "每日一言",
      "relativeTime": "8天前"
    },
    {
      "id": 1550943,
      "content": "华为高端 5G 手机最快 10 月后上市",
      "category_id": 388,
      "tag_id": "19024",
      "title": "",
      "cover": "http://s1.dgtle.com/dgtle_img/news/2023/08/02/b1ee8202308020939448538.jpeg?imageView2/2/w/600/q/100/format/jpg",
      "imgs_url": "",
      "num": "",
      "unit": "",
      "from": "渠道商爆料",
      "img_source": "图源网络",
      "status": 2,
      "audit": 0,
      "viewnum": 799,
      "commentnum": 5,
      "liketimes": 0,
      "favtimes": 0,
      "pushed": 0,
      "push_at": 1690940388,
      "recommend": 0,
      "digest": 0,
      "created_at": 1690940388,
      "updated_at": 1691026394,
      "is_like": 0,
      "cate_name": "每日一言",
      "column_id": "每日一言",
      "relativeTime": "9天前"
    },
    {
      "id": 1550929,
      "content": "三星 Galaxy S23 Ultra 关于 8K 视频下禁用高码率功能，我们深表歉意。在拍摄 8K 视频过程中，如果启用该选项会占用大量资源，我们不得不进...",
      "category_id": 388,
      "tag_id": "19024",
      "title": "",
      "cover": "http://s1.dgtle.com/dgtle_img/news/2023/08/01/07ff0202308011020097292.jpeg?imageView2/2/w/600/q/100/format/jpg",
      "imgs_url": "",
      "num": "",
      "unit": "",
      "from": "三星",
      "img_source": "图源网络",
      "status": 2,
      "audit": 0,
      "viewnum": 698,
      "commentnum": 0,
      "liketimes": 1,
      "favtimes": 0,
      "pushed": 0,
      "push_at": 1690856419,
      "recommend": 0,
      "digest": 0,
      "created_at": 1690856419,
      "updated_at": 1690908645,
      "is_like": 0,
      "cate_name": "每日一言",
      "column_id": "每日一言",
      "relativeTime": "10天前"
    },
    {
      "id": 1550916,
      "content": "RS 版电动汽车将具有鲜明的个性",
      "category_id": 388,
      "tag_id": "19024",
      "title": "",
      "cover": "http://s1.dgtle.com/dgtle_img/news/2023/07/31/78240202307311021378131.jpeg?imageView2/2/w/600/q/100/format/jpg",
      "imgs_url": "",
      "num": "",
      "unit": "",
      "from": "奥迪",
      "img_source": "图源网络",
      "status": 2,
      "audit": 0,
      "viewnum": 766,
      "commentnum": 1,
      "liketimes": 1,
      "favtimes": 0,
      "pushed": 0,
      "push_at": 1690770098,
      "recommend": 0,
      "digest": 0,
      "created_at": 1690770098,
      "updated_at": 1690818377,
      "is_like": 0,
      "cate_name": "每日一言",
      "column_id": "每日一言",
      "relativeTime": "11天前"
    }
  ],
  "_links": {
    "self": {
      "href": "https://opser.api.dgtle.com/v1/news/388?last_id=&page=1&per-page=10"
    },
    "next": {
      "href": "https://opser.api.dgtle.com/v1/news/388?last_id=&page=2&per-page=10"
    },
    "last": {
      "href": "https://opser.api.dgtle.com/v1/news/388?last_id=&page=173&per-page=10"
    }
  },
  "_meta": {
    "totalCount": 1721,
    "pageCount": 173,
    "currentPage": 1,
    "perPage": 10
  }
}
